static char *folder_xpm[] =
{
	"16 16 8 1",
	" 	c None",
	".	c #909000",
	"+	c #000000",
	"@	c #EFE8EF",
	"#	c #FFF8CF",
	"$	c #FFF890",
	"%	c #CFC860",
	"&	c #FFC890",
	"                ",
	"  .....+        ",
	" .@##$$.+       ",
	".%%%%%%%......  ",
	".###########$%+ ",
	".#$$$$$$$$$$&%+ ",
	".#$$$$$$$&$&$%+ ",
	".#$$$$$$$$&$&%+ ",
	".#$$$$$&$&$&$%+ ",
	".#$$$$$$&$&$&%+ ",
	".#$$$&$&$&$&&%+ ",
	".#&$&$&$&$&&&%+ ",
	".%%%%%%%%%%%%%+ ",
	" ++++++++++++++ ",
	"                ",
	"                "};

