static char *ofolder_xpm[] =
{
	"16 16 12 1",
	" 	c None",
	".	c #808080",
	"+	c #E0E0D0",
	"@	c #4F484F",
	"#	c #909000",
	"$	c #FFF8EF",
	"%	c #CFC860",
	"&	c #003090",
	"*	c #7F7800",
	"=	c #FFC890",
	"-	c #FFF890",
	";	c #2F3000",
	"        .       ",
	"       .+@      ",
	"   ###.$$+@     ",
	"  #%%.$$$$+@    ",
	"  #%.$$$&$$+@** ",
	"  #.+++&+&+++@* ",
	"############++@ ",
	"#$$$$$$$$$=%#++@",
	"#$-------=-=#+; ",
	" #---=--=-==%#; ",
	" #-----=-=-==#; ",
	" #-=--=-=-=-=#; ",
	"  #=-=-=-=-==#; ",
	"  ############; ",
	"   ;;;;;;;;;;;  ",
	"                "};


